offset_subsetting — offset_subsetting • ConFluxPro
…
offset_correction(gasdata,
                  corr_map = cmap,
                  gases = "CO2",
                  gases_std = 400e-6,
                  depth_cal = "HU")

}
#> Joining with `by = join_by(Date, SAMPLE_NO)`
#> Joining with `by = join_by(gas)`
#> Adding missing grouping variables: `section`
#> Joining with `by = join_by(Date, gas)`
#> # A tibble: 624 × 9
#> # Groups:   gas, section [1]
#>    section Date       gas   corr_fac site   depth x_ppm depth_cat SAMPLE_NO
#>      <int> <date>     <chr>    <dbl> <chr>  <dbl> <dbl> <chr>         <int>
#>  1       1 2021-01-01 CO2      0.952 site_a     5  403. HU                1
#>  2       1 2021-01-01 CO2      0.952 site_a     0  526. MIN               2
#>  3       1 2021-01-01 CO2      0.952 site_a     0  529. MIN               3
#>  4       1 2021-01-01 CO2      0.952 site_a     0  530. MIN               4
#>  5       1 2021-01-01 CO2      0.952 site_a   -10  682. MIN               5
#>  6       1 2021-01-01 CO2      0.952 site_a   -10  679. MIN               6
#>  7       1 2021-01-01 CO2      0.952 site_a   -10  689. MIN               7
#>  8       1 2021-01-01 CO2      0.952 site_a   -20  759. MIN               8
#>  9       1 2021-01-01 CO2      0.952 site_a   -20  779. MIN               9
#> 10       1 2021-01-01 CO2      0.952 site_a   -20  759. MIN              10
#> # ℹ 614 more rows
…
